<svg class="sc-navbar-logo" xmlns="http://www.w3.org/2000/svg" viewBox="0 0 182.6181641 70.7509766">
	<path fill="#404144" d="M69.03 28.806c.8 1.43 2.7 1.998 5.33 1.998 4.262 0 6.393-1.732 6.393-4.995 0-2.566-1.165-3.93-3.696-4.697l-4.396-1.3c-1.53-.464-1.697-1.03-1.697-1.863 0-1.432.898-2.064 2.797-2.064 2.165 0 2.965.7 2.965 2.13v1.265h3.296v-5.593h-2.397v1.4c-.566-1.066-2.03-1.832-4.86-1.832-3.598 0-5.863 1.565-5.863 5.028 0 2.197.833 3.763 3.53 4.462l4.03 1.032c1.632.433 1.964 1 1.964 2.065 0 1.398-.766 2.164-3.03 2.164-2.064 0-3.363-.6-3.363-2.364v-.9h-3.428v5.63h2.43v-1.566zM84.482 25.94c0 3.798.967 4.763 4.463 4.763 1.4 0 2.897-.2 3.63-.366v-2.93c-.7.133-1.764.233-2.465.233-1.398 0-1.73-.5-1.73-1.798v-9.19h3.83v-2.965h-3.83v-4.26H84.48v4.26h-1.997v2.964h1.997v9.29zM101.398 20.547c-4.36 0-6.725 1.265-6.725 5.495 0 3.196 1.698 4.762 4.83 4.762 3.095 0 5.093-1.233 5.958-3.264v.466c0 1.8.868 2.365 2.3 2.365h3.196v-2.93h-1.198c-.666 0-.8-.233-.8-.932v-8.092c0-3.73-1.73-5.16-6.46-5.16-2.564 0-5.028.665-6.526 1.265v4.196h3.03v-1.798c.766-.366 2.064-.566 3.13-.566 2.53 0 2.93.798 2.93 2.23v1.965H101.4zm3.665 3.396c0 2.066-1.6 3.797-4.097 3.797-1.364 0-2.364-.566-2.364-2.298 0-1.964 1.033-2.697 3.663-2.697h2.797v1.198zM121.08 27.44h-2.697v-5.694c0-3.396 1.398-5.128 3.695-5.128.633 0 1.2.1 1.4.166v2.764h2.997v-5.86c-.6-.234-1.832-.433-2.898-.433-2.83 0-4.528 1.3-5.227 3.796 0-.465.033-.932.033-1.398v-1.964h-5.762v2.963h1.9v10.79h-2.032v2.93h8.592v-2.93zM130.137 25.94c0 3.798.966 4.763 4.463 4.763 1.398 0 2.896-.2 3.63-.366v-2.93c-.7.133-1.766.233-2.465.233-1.4 0-1.732-.5-1.732-1.798v-9.19h3.83v-2.965h-3.83v-4.26h-3.896v4.26h-1.998v2.964h1.997v9.29zM141.393 25.575c0 4.296 2.13 5.23 4.894 5.23 3.13 0 5.063-1.534 5.928-3.698v.9c0 1.798.9 2.364 2.33 2.364h3.197v-2.93h-1.23c-.667 0-.8-.233-.8-.932v-12.82h-5.96v2.963h2.063v6.594c0 2.664-1.23 4.496-4.095 4.496-1.632 0-2.43-.7-2.43-2.63V13.687h-5.83v2.963h1.933v8.925zM166.534 34.566h-1.998v-5.162c.833 1.1 2.197 1.4 4.195 1.4 4.13 0 6.83-1.9 6.83-8.99 0-7.16-2.367-8.56-5.962-8.56-2.232 0-4.162.933-5.23 2.864v-2.43h-5.46v2.963h1.733v17.916h-1.998v2.93h7.892v-2.93zm-1.998-14.02c0-2.796 1.465-4.194 3.73-4.194 2.03 0 3.23.932 3.23 5.46 0 4.896-1.166 5.928-3.697 5.928-2.232 0-3.264-.866-3.264-3.563v-3.63zM74.46 54.644c-2.33 0-3.696-.766-3.696-5.495 0-4.595 1.165-5.728 3.76-5.728 2.632 0 3.165 1.232 3.165 2.664v1.232h3.562v-6.726h-2.764v1.665c-.5-1.233-1.998-2.1-4.86-2.1-4.564 0-6.96 2.733-6.96 9.06 0 6.66 2.697 8.49 7.46 8.49 4.628 0 7.358-1.698 7.358-6.926H77.99c0 2.898-1.266 3.864-3.53 3.864zM98.235 53.412V45.32c0-3.73-1.73-5.162-6.46-5.162-2.564 0-5.028.667-6.526 1.266v4.196h3.03v-1.798c.765-.367 2.064-.566 3.13-.566 2.53 0 2.93.8 2.93 2.23v1.965h-3.663c-4.363 0-6.727 1.267-6.727 5.495 0 3.198 1.698 4.762 4.828 4.762 3.097 0 5.095-1.23 5.96-3.263v.466c0 1.8.867 2.364 2.3 2.364h3.196v-2.93h-1.2c-.665 0-.8-.233-.8-.932zm-3.895-2.564c0 2.064-1.6 3.796-4.096 3.796-1.365 0-2.364-.566-2.364-2.297 0-1.965 1.032-2.698 3.663-2.698h2.797v1.198zM127.106 45.62c0-4.196-1.83-5.462-4.76-5.462-2.532 0-4.297 1.2-5.196 3.297-.566-2.464-2.197-3.297-4.53-3.297-2.696 0-4.493 1.333-5.326 3.696v-3.262h-5.396v2.964h1.9v10.79h-2.032v2.928h7.526v-2.93h-1.632v-5.927c0-2.863.832-4.86 3.33-4.86 1.732 0 2.497.698 2.497 2.73v8.058h-1.698v2.93h7.325v-2.93h-1.732v-5.928c0-3.03.933-4.86 3.33-4.86 1.732 0 2.498.698 2.498 2.73v8.058h-1.598v2.93h7.326v-2.93h-1.832V45.62zM140.827 40.158c-2.23 0-4.163.933-5.228 2.864v-2.43h-5.462v2.964h1.73V61.47h-1.997v2.93h7.894v-2.93h-1.998v-5.16c.832 1.098 2.197 1.397 4.195 1.397 4.13 0 6.827-1.897 6.827-8.99 0-7.16-2.363-8.56-5.96-8.56zm-1.798 14.486c-2.232 0-3.264-.866-3.264-3.563v-3.63c0-2.796 1.464-4.194 3.728-4.194 2.03 0 3.23.932 3.23 5.46 0 4.896-1.164 5.928-3.695 5.928zM164.67 53.412v-12.82h-5.96v2.964h2.063v6.592c0 2.664-1.232 4.496-4.095 4.496-1.632 0-2.43-.7-2.43-2.63V40.59h-5.828v2.964h1.932v8.923c0 4.294 2.13 5.227 4.894 5.227 3.13 0 5.06-1.53 5.927-3.695v.898c0 1.8.9 2.364 2.33 2.364h3.198v-2.93h-1.23c-.667 0-.8-.233-.8-.932zM178.922 48.018l-4.396-1.3c-1.532-.465-1.698-1.03-1.698-1.864 0-1.432.9-2.064 2.797-2.064 2.164 0 2.964.698 2.964 2.13v1.266h3.295v-5.594h-2.397v1.398c-.566-1.065-2.03-1.832-4.862-1.832-3.597 0-5.86 1.566-5.86 5.03 0 2.197.832 3.762 3.53 4.46l4.028 1.033c1.632.434 1.965 1 1.965 2.066 0 1.4-.767 2.164-3.03 2.164-2.066 0-3.364-.6-3.364-2.364v-.9h-3.43v5.628h2.43V55.71c.8 1.432 2.698 1.997 5.33 1.997 4.26 0 6.392-1.73 6.392-4.994 0-2.565-1.166-3.93-3.696-4.695z"/>
	<path class="sign" fill="#3c89c1" d="M38.99 54.67l-5.57 3.217-5.57 3.216-5.57 3.215-5.57-3.214-5.57-3.216-5.57-3.217V35.376L0 32.16V57.886l5.57 3.217 5.57 3.214 5.57 3.217 5.57 3.216 5.57-3.216 5.57-3.216 5.57-3.215 5.57-3.216v-6.432l-5.57-3.216"/>
	<path class="sign" fill="#3c89c1" d="M11.14 12.864l5.57-3.217 5.57-3.215 5.57 3.215 5.57 3.217 5.57 3.216 5.57-3.216-5.57-3.217-5.57-3.215-5.57-3.216L22.28 0l-5.57 3.216-5.57 3.216-5.57 3.215L0 12.864v12.864l5.57 3.215 5.57 3.216v19.295l5.57 3.216 5.57 3.218 5.57-3.217 5.57-3.215-5.57-3.216-5.57 3.215-5.57-3.216V35.374l5.57 3.216 5.57 3.218 5.57 3.215 5.57 3.216 5.57 3.215v-6.432l-5.57-3.215-5.57-3.217-5.57-3.215-5.57-3.216-5.57-3.217v-6.377l5.57-3.215 5.57 3.216v6.432l5.57 3.216 5.57 3.216v-.054l5.57 3.215V12.865l-5.57 3.216v12.918l-5.57-3.216v-6.43l-5.57-3.217-5.57-3.216-5.57 3.215-5.57 3.216v6.378l-5.57-3.216V16.08"/>
</svg>
