<svg version="1.1" xmlns="http://www.w3.org/2000/svg" xmlns:xlink="http://www.w3.org/1999/xlink" width="32" height="32" viewBox="0 0 32 32">
<path fill="#444444" d="M1.571 1.572h28.86v28.858h-28.86v-28.858zM0 32h32.002v-31.999h-32.002v31.999z"></path>
<path fill="#444444" d="M16.002 24.786c-4.845 0-8.787-3.941-8.787-8.786s3.942-8.787 8.787-8.787 8.786 3.942 8.786 8.787c0 4.845-3.941 8.786-8.786 8.786zM16.002 8.784c-3.979 0-7.215 3.237-7.215 7.216s3.237 7.214 7.215 7.214c3.978 0 7.214-3.237 7.214-7.214s-3.237-7.216-7.214-7.216z"></path>
<path fill="#444444" d="M15.216 0h1.571v32h-1.571v-32z"></path>
</svg>
